<svg width="20" height="20" viewBox="0 0 20 20" fill="none" xmlns="http://www.w3.org/2000/svg">
<path d="M0.75 10C0.75 8.11697 0.750719 6.75483 0.847419 5.68789C0.943186 4.63125 1.12833 3.93798 1.45337 3.375C1.91415 2.5769 2.5769 1.91415 3.375 1.45337C3.93798 1.12833 4.63125 0.943186 5.68789 0.847419C6.75483 0.750719 8.11697 0.75 10 0.75C11.883 0.75 13.2452 0.750719 14.3121 0.847419C15.3687 0.943186 16.062 1.12833 16.625 1.45337C17.4231 1.91415 18.0858 2.5769 18.5466 3.375C18.8717 3.93798 19.0568 4.63125 19.1526 5.68789C19.2493 6.75483 19.25 8.11697 19.25 10C19.25 11.883 19.2493 13.2452 19.1526 14.3121C19.0568 15.3687 18.8717 16.062 18.5466 16.625C18.0858 17.4231 17.4231 18.0858 16.625 18.5466C16.062 18.8717 15.3687 19.0568 14.3121 19.1526C13.2452 19.2493 11.883 19.25 10 19.25C8.11697 19.25 6.75483 19.2493 5.68789 19.1526C4.63125 19.0568 3.93798 18.8717 3.375 18.5466C2.5769 18.0858 1.91415 17.4231 1.45337 16.625C1.12833 16.062 0.943186 15.3687 0.847419 14.3121C0.750719 13.2452 0.75 11.883 0.75 10Z" stroke="white" stroke-width="1.5"/>
</svg>
